%YAML 1.1
%TAG !u! tag:unity3d.com,2011:
--- !u!1045 &1
EditorBuildSettings:
  m_ObjectHideFlags: 0
  serializedVersion: 2
  m_Scenes:
  - enabled: 1
    path: Assets/Scenes/0 Title Screen.unity
    guid: c473e5de7cfd61143ac2fd5d44a81fe2
  - enabled: 1
    path: Assets/Scenes/Cutscene Start.unity
    guid: 8f6ef37f72cbf494793c87902f3f238b
  - enabled: 1
    path: Assets/Scenes/Level 1.unity
    guid: bd1b710ed13836e488b051a07b1986e9
  - enabled: 1
    path: Assets/Scenes/Level Tents.unity
    guid: 48189cca39a4c20419d1b41c6279a84a
  - enabled: 1
    path: Assets/Scenes/Level Cottage.unity
    guid: e49de6e1d26d09c44a7fa6d0e82c459b
  - enabled: 1
    path: Assets/Scenes/Level Bombard.unity
    guid: e04a055de6ca7774fa146e98a162fc47
  - enabled: 1
    path: Assets/Scenes/Level Tower.unity
    guid: c16d80a21bcad414eb62579782f3e7e5
  - enabled: 1
    path: Assets/Scenes/Level With Car.unity
    guid: 2cda990e2423bbf4892e6590ba056729
  - enabled: 1
    path: Assets/Scenes/Level Christmass.unity
    guid: 282aab1198274b14abe01144c40f6c90
  - enabled: 1
    path: Assets/Scenes/Level Ship.unity
    guid: dc56f7155b6783544b39c045443ea88c
  - enabled: 1
    path: Assets/Scenes/Level Wall.unity
    guid: b2499aefe2bdf27468065e66df802ec3
  - enabled: 1
    path: Assets/Scenes/Level Castle.unity
    guid: b9b80436c30e73c4089b8c76b370ca79
  - enabled: 1
    path: Assets/Scenes/Cutscene Final.unity
    guid: c4dcff2ddc50f3740bf473ba9a8e7449
  - enabled: 1
    path: Assets/Scenes/0 Quit Screen.unity
    guid: c6d5a04982c63d547bae861a91b63c9f
  m_configObjects: {}
